{
  "project_info": {
    "project_number": "977511232376",
    "firebase_url": "https://bharampur-9142d.firebaseio.com",
    "project_id": "bharampur-9142d",
    "storage_bucket": "bharampur-9142d.appspot.com"
  },
  "client": [
    {
      "client_info": {
        "mobilesdk_app_id": "1:977511232376:android:f48de70bffd71cbd",
        "android_client_info": {
          "package_name": "com.baharampur.onetouch"
        }
      },
      "oauth_client": [
        {
          "client_id": "977511232376-inlef6u9b17m085mfel48vsk4i93vkve.apps.googleusercontent.com",
          "client_type": 3
        }
      ],
      "api_key": [
        {
          "current_key": "AIzaSyDvpfIw3krQL3QXHiXytP6C8SkUBGUNpeE"
        }
      ],
      "services": {
        "appinvite_service": {
          "other_platform_oauth_client": [
            {
              "client_id": "977511232376-inlef6u9b17m085mfel48vsk4i93vkve.apps.googleusercontent.com",
              "client_type": 3
            }
          ]
        }
      }
    },
    {
      "client_info": {
        "mobilesdk_app_id": "1:977511232376:android:618c614d42f840ca",
        "android_client_info": {
          "package_name": "com.baharampurdriverapp.app"
        }
      },
      "oauth_client": [
        {
          "client_id": "977511232376-inlef6u9b17m085mfel48vsk4i93vkve.apps.googleusercontent.com",
          "client_type": 3
        }
      ],
      "api_key": [
        {
          "current_key": "AIzaSyDvpfIw3krQL3QXHiXytP6C8SkUBGUNpeE"
        }
      ],
      "services": {
        "appinvite_service": {
          "other_platform_oauth_client": [
            {
              "client_id": "977511232376-inlef6u9b17m085mfel48vsk4i93vkve.apps.googleusercontent.com",
              "client_type": 3
            }
          ]
        }
      }
    },
    {
      "client_info": {
        "mobilesdk_app_id": "1:977511232376:android:0dc47d551677001d",
        "android_client_info": {
          "package_name": "com.baharampurpatner.app"
        }
      },
      "oauth_client": [
        {
          "client_id": "977511232376-inlef6u9b17m085mfel48vsk4i93vkve.apps.googleusercontent.com",
          "client_type": 3
        }
      ],
      "api_key": [
        {
          "current_key": "AIzaSyDvpfIw3krQL3QXHiXytP6C8SkUBGUNpeE"
        }
      ],
      "services": {
        "appinvite_service": {
          "other_platform_oauth_client": [
            {
              "client_id": "977511232376-inlef6u9b17m085mfel48vsk4i93vkve.apps.googleusercontent.com",
              "client_type": 3
            }
          ]
        }
      }
    }
  ],
  "configuration_version": "1"
}